<svg width="375" height="251" viewBox="0 0 375 251" fill="none" xmlns="http://www.w3.org/2000/svg">
<circle cx="187.5" cy="49.2195" r="199.234" stroke="#A7C5BB" stroke-width="4"/>
<circle cx="262.331" cy="158.848" r="61.7242" stroke="#A7C5BB" stroke-width="4"/>
<circle cx="151.79" cy="-2.10077" r="132.156" stroke="#A7C5BB" stroke-width="4"/>
</svg>
